technotrust
================
xiaowei
9/27/2018

``` r
responses <- readxl::read_xls('Techno trust (Responses).xls')
responses
```

    ## # A tibble: 21 x 12
    ##    Timestamp           Score `1. Select the tec… `2. Select the category …
    ##    <dttm>              <dbl> <chr>               <chr>                    
    ##  1 2018-09-21 16:38:33    0. VR (Oculus rift)    Social media (Facebook, …
    ##  2 2018-09-21 16:42:07    0. Bitcoins or other … Social media (Facebook, …
    ##  3 2018-09-21 16:47:41    0. Haven't used any o… Social media (Facebook, …
    ##  4 2018-09-21 18:14:06    0. Bitcoins or other … Social media (Facebook, …
    ##  5 2018-09-21 19:22:41    0. Home virtual assit… Social media (Facebook, …
    ##  6 2018-09-21 20:05:38    0. Haven't used any o… Social media (Facebook, …
    ##  7 2018-09-21 20:37:09    0. VR (Oculus rift)    Navigation               
    ##  8 2018-09-22 09:12:56    0. Haven't used any o… Daily Planner, Navigation
    ##  9 2018-09-22 11:07:11    0. Wearables (fitbit,… Social media (Facebook, …
    ## 10 2018-09-22 11:45:46    0. VR (Oculus rift)    Social media (Facebook, …
    ## # ... with 11 more rows, and 8 more variables: `Who do you believe should
    ## #   be most responsible for the spread of biased or incorrect content on
    ## #   Facebook's news feed?` <chr>, `4. Please indicate how much you agree
    ## #   or disagree with the statement: I am comfortable with the use of
    ## #   emerging technologies (Chatbots, RoboAdvisors or VR etc.)` <chr>, `5.
    ## #   Please indicate how much you agree or disagree with the statement:
    ## #   Chatbots are likely to be more efficient than human beings in
    ## #   responding to customer service complaints` <chr>, `6. Please indicate
    ## #   how much you agree or disagree with the statement: I am likely to
…
